001#Anang    #1#70#80#90#
002#Ashanti  #0#20#30#40#
003#Dhani    #1#75#50#85#
004#Tulus    #1#80#60#95#
005#Skrillex #0#40#60#25#
006#Alan     #0#30#35#20#
007#Suryajana#0#30#15#25#
008#Ewing    #1#25#90#85#
009#PewDiePie#0#10#40#35#
010#TSeries  #1#75#70#85#